vga_test.vcd
$date
	Sun Nov 30 15:32:14 2025
$end
$version
	Icarus Verilog
$end
$timescale
	1ps
$end
$scope module vgaController_tb $end
$var wire 1 ! vsync $end
$var wire 10 " vert_count [9:0] $end
$var wire 1 # hsync $end
$var wire 10 $ horiz_count [9:0] $end
$var wire 4 % R [3:0] $end
$var wire 4 & G [3:0] $end
$var wire 4 ' B [3:0] $end
$var reg 8 ( destination [7:0] $end
$var reg 1 ) pixel_clk $end
$var reg 1 * reset $end
$var reg 2 + sim_state [1:0] $end
$scope module DUT $end
$var wire 8 , destination [7:0] $end
$var wire 26 - people_data [25:0] $end
$var wire 1 * reset $end
$var wire 2 . sim_state [1:0] $end
$var wire 1 / pixel_clk $end
$var wire 4 0 R [3:0] $end
$var wire 4 1 G [3:0] $end
$var wire 4 2 B [3:0] $end
$var parameter 32 3 horiz_back_porch $end
$var parameter 32 4 horiz_front_porch $end
$var parameter 32 5 horiz_pixel $end
$var parameter 32 6 horz_sync_pulse $end
$var parameter 32 7 vert_back_porch $end
$var parameter 32 8 vert_front_porch $end
$var parameter 32 9 vert_pixel $end
$var parameter 32 : vert_sync_pulse $end
$var reg 1 ; enable $end
$var reg 10 < horiz_count [9:0] $end
$var reg 1 # hsync $end
$var reg 10 = next_horiz_count [9:0] $end
$var reg 10 > next_vert_count [9:0] $end
$var reg 10 ? vert_count [9:0] $end
$var reg 1 ! vsync $end
$scope module pixelu0 $end
$var wire 8 @ destination [7:0] $end
$var wire 1 ; enable $end
$var wire 26 A people_data [25:0] $end
$var wire 2 B sim_state [1:0] $end
$var wire 10 C x_coord [9:0] $end
$var wire 10 D y_coord [9:0] $end
$var parameter 32 E building_width $end
$var parameter 32 F elevator_height $end
$var parameter 32 G floor_width $end
$var parameter 32 H max_horiz $end
$var parameter 32 I max_vert $end
$var parameter 32 J outline_width $end
$var parameter 32 K side_buffer $end
$var parameter 32 L top_bottom_buffer $end
$var reg 4 M B [3:0] $end
$var reg 4 N G [3:0] $end
$var reg 4 O R [3:0] $end
$upscope $end
$scope module pll_u0 $end
$var reg 1 / VGA_CLK $end
$upscope $end
$upscope $end
$upscope $end
$enddefinitions $end
$comment Show the parameter values. $end
$dumpall
b1111 L
b10100 K
b1010 J
b111100000 I
b1010000000 H
b1001011 G
b1000110 F
b11001000 E
b10 :
b111100000 9
b1010 8
b100001 7
b1100000 6
b1010000000 5
b10000 4
b110000 3
$end
#0
$dumpvars
b10 O
b1111 N
b1000 M
b0 D
b0 C
b1 B
bz A
b0 @
b0 ?
b1 >
b1 =
b0 <
1;
b1000 2
b1111 1
b10 0
0/
b1 .
bz -
b0 ,
b1 +
1*
0)
b0 (
b1000 '
b1111 &
b10 %
b0 $
1#
b0 "
1!
$end
#20000
1)
1/
#40000
0)
0/
#60000
1)
1/
#80000
0)
0/
#100000
1)
1/
#120000
0)
0/
#140000
1)
1/
#160000
0)
0/
#180000
1)
1/
#200000
0)
0/
0*
#220000
b10 =
b1 "
b1 ?
b1 D
b1 $
b1 <
b1 C
b10000 (
b10000 ,
b10000 @
1)
1/
#240000
0)
0/
#260000
b11 =
b10 $
b10 <
b10 C
1)
1/
#280000
0)
0/
#300000
b100 =
b11 $
b11 <
b11 C
1)
1/
#320000
0)
0/
#340000
b101 =
b100 $
b100 <
b100 C
1)
1/
#360000
0)
0/
#380000
b110 =
b101 $
b101 <
b101 C
1)
1/
#400000
0)
0/
#420000
b111 =
b110 $
b110 <
b110 C
1)
1/
#440000
0)
0/
#460000
b1000 =
b111 $
b111 <
b111 C
1)
1/
#480000
0)
0/
#500000
b1001 =
b1000 $
b1000 <
b1000 C
1)
1/
#520000
0)
0/
#540000
b1010 =
b1001 $
b1001 <
b1001 C
1)
1/
#560000
0)
0/
#580000
b1011 =
b1010 $
b1010 <
b1010 C
1)
1/
#600000
0)
0/
#620000
b1100 =
b1011 $
b1011 <
b1011 C
1)
1/
#640000
0)
0/
#660000
b1101 =
b1100 $
b1100 <
b1100 C
1)
1/
#680000
0)
0/
#700000
b1110 =
b1101 $
b1101 <
b1101 C
1)
1/
#720000
0)
0/
#740000
b1111 =
b1110 $
b1110 <
b1110 C
1)
1/
#760000
0)
0/
#780000
b10000 =
b1111 $
b1111 <
b1111 C
1)
1/
#800000
0)
0/
#820000
b10001 =
b10000 $
b10000 <
b10000 C
1)
1/
#840000
0)
0/
#860000
b10010 =
b10001 $
b10001 <
b10001 C
1)
1/
#880000
0)
0/
#900000
b10011 =
b10010 $
b10010 <
b10010 C
1)
1/
#920000
0)
0/
#940000
b10100 =
b10011 $
b10011 <
b10011 C
1)
1/
#960000
0)
0/
#980000
b10101 =
b10100 $
b10100 <
b10100 C
1)
1/
#1000000
0)
0/
#1020000
b10110 =
b10101 $
b10101 <
b10101 C
1)
1/
#1040000
0)
0/
#1060000
b10111 =
b10110 $
b10110 <
b10110 C
1)
1/
#1080000
0)
0/
#1100000
b11000 =
b10111 $
b10111 <
b10111 C
1)
1/
#1120000
0)
0/
#1140000
b11001 =
b11000 $
b11000 <
b11000 C
1)
1/
#1160000
0)
0/
#1180000
b11010 =
b11001 $
b11001 <
b11001 C
1)
1/
#1200000
0)
0/
#1220000
b11011 =
b11010 $
b11010 <
b11010 C
1)
1/
#1240000
0)
0/
#1260000
b11100 =
b11011 $
b11011 <
b11011 C
1)
1/
#1280000
0)
0/
#1300000
b11101 =
b11100 $
b11100 <
b11100 C
1)
1/
#1320000
0)
0/
#1340000
b11110 =
b11101 $
b11101 <
b11101 C
1)
1/
#1360000
0)
0/
#1380000
b11111 =
b11110 $
b11110 <
b11110 C
1)
1/
#1400000
0)
0/
#1420000
b100000 =
b11111 $
b11111 <
b11111 C
1)
1/
#1440000
0)
0/
#1460000
b100001 =
b100000 $
b100000 <
b100000 C
1)
1/
#1480000
0)
0/
#1500000
b100010 =
b100001 $
b100001 <
b100001 C
1)
1/
#1520000
0)
0/
#1540000
b100011 =
b100010 $
b100010 <
b100010 C
1)
1/
#1560000
0)
0/
#1580000
b100100 =
b100011 $
b100011 <
b100011 C
1)
1/
#1600000
0)
0/
#1620000
b100101 =
b100100 $
b100100 <
b100100 C
1)
1/
#1640000
0)
0/
#1660000
b100110 =
b100101 $
b100101 <
b100101 C
1)
1/
#1680000
0)
0/
#1700000
b100111 =
b100110 $
b100110 <
b100110 C
1)
1/
#1720000
0)
0/
#1740000
b101000 =
b100111 $
b100111 <
b100111 C
1)
1/
#1760000
0)
0/
#1780000
b101001 =
b101000 $
b101000 <
b101000 C
1)
1/
#1800000
0)
0/
#1820000
b101010 =
b101001 $
b101001 <
b101001 C
1)
1/
#1840000
0)
0/
#1860000
b101011 =
b101010 $
b101010 <
b101010 C
1)
1/
#1880000
0)
0/
#1900000
b101100 =
b101011 $
b101011 <
b101011 C
1)
1/
#1920000
0)
0/
#1940000
b101101 =
b101100 $
b101100 <
b101100 C
1)
1/
#1960000
0)
0/
#1980000
b101110 =
b101101 $
b101101 <
b101101 C
1)
1/
#2000000
0)
0/
#2020000
b101111 =
b101110 $
b101110 <
b101110 C
1)
1/
#2040000
0)
0/
#2060000
b110000 =
b101111 $
b101111 <
b101111 C
1)
1/
#2080000
0)
0/
#2100000
b110001 =
b110000 $
b110000 <
b110000 C
1)
1/
#2120000
0)
0/
#2140000
b110010 =
b110001 $
b110001 <
b110001 C
1)
1/
#2160000
0)
0/
#2180000
b110011 =
b110010 $
b110010 <
b110010 C
1)
1/
#2200000
0)
0/
#2220000
b110100 =
b110011 $
b110011 <
b110011 C
1)
1/
#2240000
0)
0/
#2260000
b110101 =
b110100 $
b110100 <
b110100 C
1)
1/
#2280000
0)
0/
#2300000
b110110 =
b110101 $
b110101 <
b110101 C
1)
1/
#2320000
0)
0/
#2340000
b110111 =
b110110 $
b110110 <
b110110 C
1)
1/
#2360000
0)
0/
#2380000
b111000 =
b110111 $
b110111 <
b110111 C
1)
1/
#2400000
0)
0/
#2420000
b111001 =
b111000 $
b111000 <
b111000 C
1)
1/
#2440000
0)
0/
#2460000
b111010 =
b111001 $
b111001 <
b111001 C
1)
1/
#2480000
0)
0/
#2500000
b111011 =
b111010 $
b111010 <
b111010 C
1)
1/
#2520000
0)
0/
#2540000
b111100 =
b111011 $
b111011 <
b111011 C
1)
1/
#2560000
0)
0/
#2580000
b111101 =
b111100 $
b111100 <
b111100 C
1)
1/
#2600000
0)
0/
#2620000
b111110 =
b111101 $
b111101 <
b111101 C
1)
1/
#2640000
0)
0/
#2660000
b111111 =
b111110 $
b111110 <
b111110 C
1)
1/
#2680000
0)
0/
#2700000
b1000000 =
b111111 $
b111111 <
b111111 C
1)
1/
#2720000
0)
0/
#2740000
b1000001 =
b1000000 $
b1000000 <
b1000000 C
1)
1/
#2760000
0)
0/
#2780000
b1000010 =
b1000001 $
b1000001 <
b1000001 C
1)
1/
#2800000
0)
0/
#2820000
b1000011 =
b1000010 $
b1000010 <
b1000010 C
1)
1/
#2840000
0)
0/
#2860000
b1000100 =
b1000011 $
b1000011 <
b1000011 C
1)
1/
#2880000
0)
0/
#2900000
b1000101 =
b1000100 $
b1000100 <
b1000100 C
1)
1/
#2920000
0)
0/
#2940000
b1000110 =
b1000101 $
b1000101 <
b1000101 C
1)
1/
#2960000
0)
0/
#2980000
b1000111 =
b1000110 $
b1000110 <
b1000110 C
1)
1/
#3000000
0)
0/
#3020000
b1001000 =
b1000111 $
b1000111 <
b1000111 C
1)
1/
#3040000
0)
0/
#3060000
b1001001 =
b1001000 $
b1001000 <
b1001000 C
1)
1/
#3080000
0)
0/
#3100000
b1001010 =
b1001001 $
b1001001 <
b1001001 C
1)
1/
#3120000
0)
0/
#3140000
b1001011 =
b1001010 $
b1001010 <
b1001010 C
1)
1/
#3160000
0)
0/
#3180000
b1001100 =
b1001011 $
b1001011 <
b1001011 C
1)
1/
#3200000
0)
0/
#3220000
b1001101 =
b1001100 $
b1001100 <
b1001100 C
1)
1/
#3240000
0)
0/
#3260000
b1001110 =
b1001101 $
b1001101 <
b1001101 C
1)
1/
#3280000
0)
0/
#3300000
b1001111 =
b1001110 $
b1001110 <
b1001110 C
1)
1/
#3320000
0)
0/
#3340000
b1010000 =
b1001111 $
b1001111 <
b1001111 C
1)
1/
#3360000
0)
0/
#3380000
b1010001 =
b1010000 $
b1010000 <
b1010000 C
1)
1/
#3400000
0)
0/
#3420000
b1010010 =
b1010001 $
b1010001 <
b1010001 C
1)
1/
#3440000
0)
0/
#3460000
b1010011 =
b1010010 $
b1010010 <
b1010010 C
1)
1/
#3480000
0)
0/
#3500000
b1010100 =
b1010011 $
b1010011 <
b1010011 C
1)
1/
#3520000
0)
0/
#3540000
b1010101 =
b1010100 $
b1010100 <
b1010100 C
1)
1/
#3560000
0)
0/
#3580000
b1010110 =
b1010101 $
b1010101 <
b1010101 C
1)
1/
#3600000
0)
0/
#3620000
b1010111 =
b1010110 $
b1010110 <
b1010110 C
1)
1/
#3640000
0)
0/
#3660000
b1011000 =
b1010111 $
b1010111 <
b1010111 C
1)
1/
#3680000
0)
0/
#3700000
b1011001 =
b1011000 $
b1011000 <
b1011000 C
1)
1/
#3720000
0)
0/
#3740000
b1011010 =
b1011001 $
b1011001 <
b1011001 C
1)
1/
#3760000
0)
0/
#3780000
b1011011 =
b1011010 $
b1011010 <
b1011010 C
1)
1/
#3800000
0)
0/
#3820000
b1011100 =
b1011011 $
b1011011 <
b1011011 C
1)
1/
#3840000
0)
0/
#3860000
b1011101 =
b1011100 $
b1011100 <
b1011100 C
1)
1/
#3880000
0)
0/
#3900000
b1011110 =
b1011101 $
b1011101 <
b1011101 C
1)
1/
#3920000
0)
0/
#3940000
b1011111 =
b1011110 $
b1011110 <
b1011110 C
1)
1/
#3960000
0)
0/
#3980000
b1100000 =
b1011111 $
b1011111 <
b1011111 C
1)
1/
#4000000
0)
0/
#4020000
b1100001 =
b1100000 $
b1100000 <
b1100000 C
1)
1/
#4040000
0)
0/
#4060000
b1100010 =
b1100001 $
b1100001 <
b1100001 C
1)
1/
#4080000
0)
0/
#4100000
b1100011 =
b1100010 $
b1100010 <
b1100010 C
1)
1/
#4120000
0)
0/
#4140000
b1100100 =
b1100011 $
b1100011 <
b1100011 C
1)
1/
#4160000
0)
0/
#4180000
b1100101 =
b1100100 $
b1100100 <
b1100100 C
1)
1/
#4200000
0)
0/
#4220000
b1100110 =
b1100101 $
b1100101 <
b1100101 C
1)
1/
#4240000
0)
0/
#4260000
b1100111 =
b1100110 $
b1100110 <
b1100110 C
1)
1/
#4280000
0)
0/
#4300000
b1101000 =
b1100111 $
b1100111 <
b1100111 C
1)
1/
#4320000
0)
0/
#4340000
b1101001 =
b1101000 $
b1101000 <
b1101000 C
1)
1/
#4360000
0)
0/
#4380000
b1101010 =
b1101001 $
b1101001 <
b1101001 C
1)
1/
#4400000
0)
0/
#4420000
b1101011 =
b1101010 $
b1101010 <
b1101010 C
1)
1/
#4440000
0)
0/
#4460000
b1101100 =
b1101011 $
b1101011 <
b1101011 C
1)
1/
#4480000
0)
0/
#4500000
b1101101 =
b1101100 $
b1101100 <
b1101100 C
1)
1/
#4520000
0)
0/
#4540000
b1101110 =
b1101101 $
b1101101 <
b1101101 C
1)
1/
#4560000
0)
0/
#4580000
b1101111 =
b1101110 $
b1101110 <
b1101110 C
1)
1/
#4600000
0)
0/
#4620000
b1110000 =
b1101111 $
b1101111 <
b1101111 C
1)
1/
#4640000
0)
0/
#4660000
b1110001 =
b1110000 $
b1110000 <
b1110000 C
1)
1/
#4680000
0)
0/
#4700000
b1110010 =
b1110001 $
b1110001 <
b1110001 C
1)
1/
#4720000
0)
0/
#4740000
b1110011 =
b1110010 $
b1110010 <
b1110010 C
1)
1/
#4760000
0)
0/
#4780000
b1110100 =
b1110011 $
b1110011 <
b1110011 C
1)
1/
#4800000
0)
0/
#4820000
b1110101 =
b1110100 $
b1110100 <
b1110100 C
1)
1/
#4840000
0)
0/
#4860000
b1110110 =
b1110101 $
b1110101 <
b1110101 C
1)
1/
#4880000
0)
0/
#4900000
b1110111 =
b1110110 $
b1110110 <
b1110110 C
1)
1/
#4920000
0)
0/
#4940000
b1111000 =
b1110111 $
b1110111 <
b1110111 C
1)
1/
#4960000
0)
0/
#4980000
b1111001 =
b1111000 $
b1111000 <
b1111000 C
1)
1/
#5000000
0)
0/
#5020000
b1111010 =
b1111001 $
b1111001 <
b1111001 C
1)
1/
#5040000
0)
0/
#5060000
b1111011 =
b1111010 $
b1111010 <
b1111010 C
1)
1/
#5080000
0)
0/
#5100000
b1111100 =
b1111011 $
b1111011 <
b1111011 C
1)
1/
#5120000
0)
0/
#5140000
b1111101 =
b1111100 $
b1111100 <
b1111100 C
1)
1/
#5160000
0)
0/
#5180000
b1111110 =
b1111101 $
b1111101 <
b1111101 C
1)
1/
#5200000
0)
0/
#5220000
b1111111 =
b1111110 $
b1111110 <
b1111110 C
1)
1/
#5240000
0)
0/
#5260000
b10000000 =
b1111111 $
b1111111 <
b1111111 C
1)
1/
#5280000
0)
0/
#5300000
b10000001 =
b10000000 $
b10000000 <
b10000000 C
1)
1/
#5320000
0)
0/
#5340000
b10000010 =
b10000001 $
b10000001 <
b10000001 C
1)
1/
#5360000
0)
0/
#5380000
b10000011 =
b10000010 $
b10000010 <
b10000010 C
1)
1/
#5400000
0)
0/
#5420000
b10000100 =
b10000011 $
b10000011 <
b10000011 C
1)
1/
#5440000
0)
0/
#5460000
b10000101 =
b10000100 $
b10000100 <
b10000100 C
1)
1/
#5480000
0)
0/
#5500000
b10000110 =
b10000101 $
b10000101 <
b10000101 C
1)
1/
#5520000
0)
0/
#5540000
b10000111 =
b10000110 $
b10000110 <
b10000110 C
1)
1/
#5560000
0)
0/
#5580000
b10001000 =
b10000111 $
b10000111 <
b10000111 C
1)
1/
#5600000
0)
0/
#5620000
b10001001 =
b10001000 $
b10001000 <
b10001000 C
1)
1/
#5640000
0)
0/
#5660000
b10001010 =
b10001001 $
b10001001 <
b10001001 C
1)
1/
#5680000
0)
0/
#5700000
b10001011 =
b10001010 $
b10001010 <
b10001010 C
1)
1/
#5720000
0)
0/
#5740000
b10001100 =
b10001011 $
b10001011 <
b10001011 C
1)
1/
#5760000
0)
0/
#5780000
b10001101 =
b10001100 $
b10001100 <
b10001100 C
1)
1/
#5800000
0)
0/
#5820000
b10001110 =
b10001101 $
b10001101 <
b10001101 C
1)
1/
#5840000
0)
0/
#5860000
b10001111 =
b10001110 $
b10001110 <
b10001110 C
1)
1/
#5880000
0)
0/
#5900000
b10010000 =
b10001111 $
b10001111 <
b10001111 C
1)
1/
#5920000
0)
0/
#5940000
b10010001 =
b10010000 $
b10010000 <
b10010000 C
1)
1/
#5960000
0)
0/
#5980000
b10010010 =
b10010001 $
b10010001 <
b10010001 C
1)
1/
#6000000
0)
0/
#6020000
b10010011 =
b10010010 $
b10010010 <
b10010010 C
1)
1/
#6040000
0)
0/
#6060000
b10010100 =
b10010011 $
b10010011 <
b10010011 C
1)
1/
#6080000
0)
0/
#6100000
b10010101 =
b10010100 $
b10010100 <
b10010100 C
1)
1/
#6120000
0)
0/
#6140000
b10010110 =
b10010101 $
b10010101 <
b10010101 C
1)
1/
#6160000
0)
0/
#6180000
b10010111 =
b10010110 $
b10010110 <
b10010110 C
1)
1/
#6200000
0)
0/
#6220000
b10011000 =
b10010111 $
b10010111 <
b10010111 C
1)
1/
#6240000
0)
0/
#6260000
b10011001 =
b10011000 $
b10011000 <
b10011000 C
1)
1/
#6280000
0)
0/
#6300000
b10011010 =
b10011001 $
b10011001 <
b10011001 C
1)
1/
#6320000
0)
0/
#6340000
b10011011 =
b10011010 $
b10011010 <
b10011010 C
1)
1/
#6360000
0)
0/
#6380000
b10011100 =
b10011011 $
b10011011 <
b10011011 C
1)
1/
#6400000
0)
0/
#6420000
b10011101 =
b10011100 $
b10011100 <
b10011100 C
1)
1/
#6440000
0)
0/
#6460000
b10011110 =
b10011101 $
b10011101 <
b10011101 C
1)
1/
#6480000
0)
0/
#6500000
b10011111 =
b10011110 $
b10011110 <
b10011110 C
1)
1/
#6520000
0)
0/
#6540000
b10100000 =
b10011111 $
b10011111 <
b10011111 C
1)
1/
#6560000
0)
0/
#6580000
b10100001 =
b10100000 $
b10100000 <
b10100000 C
1)
1/
#6600000
0)
0/
#6620000
b10100010 =
b10100001 $
b10100001 <
b10100001 C
1)
1/
#6640000
0)
0/
#6660000
b10100011 =
b10100010 $
b10100010 <
b10100010 C
1)
1/
#6680000
0)
0/
#6700000
b10100100 =
b10100011 $
b10100011 <
b10100011 C
1)
1/
#6720000
0)
0/
#6740000
b10100101 =
b10100100 $
b10100100 <
b10100100 C
1)
1/
#6760000
0)
0/
#6780000
b10100110 =
b10100101 $
b10100101 <
b10100101 C
1)
1/
#6800000
0)
0/
#6820000
b10100111 =
b10100110 $
b10100110 <
b10100110 C
1)
1/
#6840000
0)
0/
#6860000
b10101000 =
b10100111 $
b10100111 <
b10100111 C
1)
1/
#6880000
0)
0/
#6900000
b10101001 =
b10101000 $
b10101000 <
b10101000 C
1)
1/
#6920000
0)
0/
#6940000
b10101010 =
b10101001 $
b10101001 <
b10101001 C
1)
1/
#6960000
0)
0/
#6980000
b10101011 =
b10101010 $
b10101010 <
b10101010 C
1)
1/
#7000000
0)
0/
#7020000
b10101100 =
b10101011 $
b10101011 <
b10101011 C
1)
1/
#7040000
0)
0/
#7060000
b10101101 =
b10101100 $
b10101100 <
b10101100 C
1)
1/
#7080000
0)
0/
#7100000
b10101110 =
b10101101 $
b10101101 <
b10101101 C
1)
1/
#7120000
0)
0/
#7140000
b10101111 =
b10101110 $
b10101110 <
b10101110 C
1)
1/
#7160000
0)
0/
#7180000
b10110000 =
b10101111 $
b10101111 <
b10101111 C
1)
1/
#7200000
0)
0/
#7220000
b10110001 =
b10110000 $
b10110000 <
b10110000 C
1)
1/
#7240000
0)
0/
#7260000
b10110010 =
b10110001 $
b10110001 <
b10110001 C
1)
1/
#7280000
0)
0/
#7300000
b10110011 =
b10110010 $
b10110010 <
b10110010 C
1)
1/
#7320000
0)
0/
#7340000
b10110100 =
b10110011 $
b10110011 <
b10110011 C
1)
1/
#7360000
0)
0/
#7380000
b10110101 =
b10110100 $
b10110100 <
b10110100 C
1)
1/
#7400000
0)
0/
#7420000
b10110110 =
b10110101 $
b10110101 <
b10110101 C
1)
1/
#7440000
0)
0/
#7460000
b10110111 =
b10110110 $
b10110110 <
b10110110 C
1)
1/
#7480000
0)
0/
#7500000
b10111000 =
b10110111 $
b10110111 <
b10110111 C
1)
1/
#7520000
0)
0/
#7540000
b10111001 =
b10111000 $
b10111000 <
b10111000 C
1)
1/
#7560000
0)
0/
#7580000
b10111010 =
b10111001 $
b10111001 <
b10111001 C
1)
1/
#7600000
0)
0/
#7620000
b10111011 =
b10111010 $
b10111010 <
b10111010 C
1)
1/
#7640000
0)
0/
#7660000
b10111100 =
b10111011 $
b10111011 <
b10111011 C
1)
1/
#7680000
0)
0/
#7700000
b10111101 =
b10111100 $
b10111100 <
b10111100 C
1)
1/
#7720000
0)
0/
#7740000
b10111110 =
b10111101 $
b10111101 <
b10111101 C
1)
1/
#7760000
0)
0/
#7780000
b10111111 =
b10111110 $
b10111110 <
b10111110 C
1)
1/
#7800000
0)
0/
#7820000
b11000000 =
b10111111 $
b10111111 <
b10111111 C
1)
1/
#7840000
0)
0/
#7860000
b11000001 =
b11000000 $
b11000000 <
b11000000 C
1)
1/
#7880000
0)
0/
#7900000
b11000010 =
b11000001 $
b11000001 <
b11000001 C
1)
1/
#7920000
0)
0/
#7940000
b11000011 =
b11000010 $
b11000010 <
b11000010 C
1)
1/
#7960000
0)
0/
#7980000
b11000100 =
b11000011 $
b11000011 <
b11000011 C
1)
1/
#8000000
0)
0/
#8020000
b11000101 =
b11000100 $
b11000100 <
b11000100 C
1)
1/
#8040000
0)
0/
#8060000
b11000110 =
b11000101 $
b11000101 <
b11000101 C
1)
1/
#8080000
0)
0/
#8100000
b11000111 =
b11000110 $
b11000110 <
b11000110 C
1)
1/
#8120000
0)
0/
#8140000
b11001000 =
b11000111 $
b11000111 <
b11000111 C
1)
1/
#8160000
0)
0/
#8180000
b11001001 =
b11001000 $
b11001000 <
b11001000 C
1)
1/
#8200000
0)
0/
#8220000
b11001010 =
b11001001 $
b11001001 <
b11001001 C
1)
1/
#8240000
0)
0/
#8260000
b11001011 =
b11001010 $
b11001010 <
b11001010 C
1)
1/
#8280000
0)
0/
#8300000
b11001100 =
b11001011 $
b11001011 <
b11001011 C
1)
1/
#8320000
0)
0/
#8340000
b11001101 =
b11001100 $
b11001100 <
b11001100 C
1)
1/
#8360000
0)
0/
#8380000
b11001110 =
b11001101 $
b11001101 <
b11001101 C
1)
1/
#8400000
0)
0/
#8420000
b11001111 =
b11001110 $
b11001110 <
b11001110 C
1)
1/
#8440000
0)
0/
#8460000
b11010000 =
b11001111 $
b11001111 <
b11001111 C
1)
1/
#8480000
0)
0/
#8500000
b11010001 =
b11010000 $
b11010000 <
b11010000 C
1)
1/
#8520000
0)
0/
#8540000
b11010010 =
b11010001 $
b11010001 <
b11010001 C
1)
1/
#8560000
0)
0/
#8580000
b11010011 =
b11010010 $
b11010010 <
b11010010 C
1)
1/
#8600000
0)
0/
#8620000
b11010100 =
b11010011 $
b11010011 <
b11010011 C
1)
1/
#8640000
0)
0/
#8660000
b11010101 =
b11010100 $
b11010100 <
b11010100 C
1)
1/
#8680000
0)
0/
#8700000
b11010110 =
b11010101 $
b11010101 <
b11010101 C
1)
1/
#8720000
0)
0/
#8740000
b11010111 =
b11010110 $
b11010110 <
b11010110 C
1)
1/
#8760000
0)
0/
#8780000
b11011000 =
b11010111 $
b11010111 <
b11010111 C
1)
1/
#8800000
0)
0/
#8820000
b11011001 =
b11011000 $
b11011000 <
b11011000 C
1)
1/
#8840000
0)
0/
#8860000
b11011010 =
b11011001 $
b11011001 <
b11011001 C
1)
1/
#8880000
0)
0/
#8900000
b11011011 =
b11011010 $
b11011010 <
b11011010 C
1)
1/
#8920000
0)
0/
#8940000
b11011100 =
b11011011 $
b11011011 <
b11011011 C
1)
1/
#8960000
0)
0/
#8980000
b11011101 =
b11011100 $
b11011100 <
b11011100 C
1)
1/
#9000000
0)
0/
#9020000
b11011110 =
b11011101 $
b11011101 <
b11011101 C
1)
1/
#9040000
0)
0/
#9060000
b11011111 =
b11011110 $
b11011110 <
b11011110 C
1)
1/
#9080000
0)
0/
#9100000
b11100000 =
b11011111 $
b11011111 <
b11011111 C
1)
1/
#9120000
0)
0/
#9140000
b11100001 =
b11100000 $
b11100000 <
b11100000 C
1)
1/
#9160000
0)
0/
#9180000
b11100010 =
b11100001 $
b11100001 <
b11100001 C
1)
1/
#9200000
0)
0/
#9220000
b11100011 =
b11100010 $
b11100010 <
b11100010 C
1)
1/
#9240000
0)
0/
#9260000
b11100100 =
b11100011 $
b11100011 <
b11100011 C
1)
1/
#9280000
0)
0/
#9300000
b11100101 =
b11100100 $
b11100100 <
b11100100 C
1)
1/
#9320000
0)
0/
#9340000
b11100110 =
b11100101 $
b11100101 <
b11100101 C
1)
1/
#9360000
0)
0/
#9380000
b11100111 =
b11100110 $
b11100110 <
b11100110 C
1)
1/
#9400000
0)
0/
#9420000
b11101000 =
b11100111 $
b11100111 <
b11100111 C
1)
1/
#9440000
0)
0/
#9460000
b11101001 =
b11101000 $
b11101000 <
b11101000 C
1)
1/
#9480000
0)
0/
#9500000
b11101010 =
b11101001 $
b11101001 <
b11101001 C
1)
1/
#9520000
0)
0/
#9540000
b11101011 =
b11101010 $
b11101010 <
b11101010 C
1)
1/
#9560000
0)
0/
#9580000
b11101100 =
b11101011 $
b11101011 <
b11101011 C
1)
1/
#9600000
0)
0/
#9620000
b11101101 =
b11101100 $
b11101100 <
b11101100 C
1)
1/
#9640000
0)
0/
#9660000
b11101110 =
b11101101 $
b11101101 <
b11101101 C
1)
1/
#9680000
0)
0/
#9700000
b11101111 =
b11101110 $
b11101110 <
b11101110 C
1)
1/
#9720000
0)
0/
#9740000
b11110000 =
b11101111 $
b11101111 <
b11101111 C
1)
1/
#9760000
0)
0/
#9780000
b11110001 =
b11110000 $
b11110000 <
b11110000 C
1)
1/
#9800000
0)
0/
#9820000
b11110010 =
b11110001 $
b11110001 <
b11110001 C
1)
1/
#9840000
0)
0/
#9860000
b11110011 =
b11110010 $
b11110010 <
b11110010 C
1)
1/
#9880000
0)
0/
#9900000
b11110100 =
b11110011 $
b11110011 <
b11110011 C
1)
1/
#9920000
0)
0/
#9940000
b11110101 =
b11110100 $
b11110100 <
b11110100 C
1)
1/
#9960000
0)
0/
#9980000
b11110110 =
b11110101 $
b11110101 <
b11110101 C
1)
1/
#10000000
0)
0/
#10020000
b11110111 =
b11110110 $
b11110110 <
b11110110 C
1)
1/
#10040000
0)
0/
#10060000
b11111000 =
b11110111 $
b11110111 <
b11110111 C
1)
1/
#10080000
0)
0/
#10100000
b11111001 =
b11111000 $
b11111000 <
b11111000 C
1)
1/
#10120000
0)
0/
#10140000
b11111010 =
b11111001 $
b11111001 <
b11111001 C
1)
1/
#10160000
0)
0/
#10180000
b11111011 =
b11111010 $
b11111010 <
b11111010 C
1)
1/
#10200000
0)
0/
#10220000
b11111100 =
b11111011 $
b11111011 <
b11111011 C
1)
1/
#10240000
0)
0/
#10260000
b11111101 =
b11111100 $
b11111100 <
b11111100 C
1)
1/
#10280000
0)
0/
#10300000
b11111110 =
b11111101 $
b11111101 <
b11111101 C
1)
1/
#10320000
0)
0/
#10340000
b11111111 =
b11111110 $
b11111110 <
b11111110 C
1)
1/
#10360000
0)
0/
#10380000
b100000000 =
b11111111 $
b11111111 <
b11111111 C
1)
1/
#10400000
0)
0/
#10420000
b100000001 =
b100000000 $
b100000000 <
b100000000 C
1)
1/
#10440000
0)
0/
#10460000
b100000010 =
b100000001 $
b100000001 <
b100000001 C
1)
1/
#10480000
0)
0/
#10500000
b100000011 =
b100000010 $
b100000010 <
b100000010 C
1)
1/
#10520000
0)
0/
#10540000
b100000100 =
b100000011 $
b100000011 <
b100000011 C
1)
1/
#10560000
0)
0/
#10580000
b100000101 =
b100000100 $
b100000100 <
b100000100 C
1)
1/
#10600000
0)
0/
#10620000
b100000110 =
b100000101 $
b100000101 <
b100000101 C
1)
1/
#10640000
0)
0/
#10660000
b100000111 =
b100000110 $
b100000110 <
b100000110 C
1)
1/
#10680000
0)
0/
#10700000
b100001000 =
b100000111 $
b100000111 <
b100000111 C
1)
1/
#10720000
0)
0/
#10740000
b100001001 =
b100001000 $
b100001000 <
b100001000 C
1)
1/
#10760000
0)
0/
#10780000
b100001010 =
b100001001 $
b100001001 <
b100001001 C
1)
1/
#10800000
0)
0/
#10820000
b100001011 =
b100001010 $
b100001010 <
b100001010 C
1)
1/
#10840000
0)
0/
#10860000
b100001100 =
b100001011 $
b100001011 <
b100001011 C
1)
1/
#10880000
0)
0/
#10900000
b100001101 =
b100001100 $
b100001100 <
b100001100 C
1)
1/
#10920000
0)
0/
#10940000
b100001110 =
b100001101 $
b100001101 <
b100001101 C
1)
1/
#10960000
0)
0/
#10980000
b100001111 =
b100001110 $
b100001110 <
b100001110 C
1)
1/
#11000000
0)
0/
#11020000
b100010000 =
b100001111 $
b100001111 <
b100001111 C
1)
1/
#11040000
0)
0/
#11060000
b100010001 =
b100010000 $
b100010000 <
b100010000 C
1)
1/
#11080000
0)
0/
#11100000
b100010010 =
b100010001 $
b100010001 <
b100010001 C
1)
1/
#11120000
0)
0/
#11140000
b100010011 =
b100010010 $
b100010010 <
b100010010 C
1)
1/
#11160000
0)
0/
#11180000
b100010100 =
b100010011 $
b100010011 <
b100010011 C
1)
1/
#11200000
0)
0/
#11220000
b100010101 =
b100010100 $
b100010100 <
b100010100 C
1)
1/
