vvp_sim.log
[25000] After reset | en=0 row=0000 -> buttonMux=0000
[50000] EN=0: Output must remain zero | en=0 row=0100 -> buttonMux=0000
[60000] EN=0: Output must remain zero | en=0 row=0001 -> buttonMux=0000
[70000] EN=0: Output must remain zero | en=0 row=1001 -> buttonMux=0000
[80000] EN=0: Output must remain zero | en=0 row=0011 -> buttonMux=0000
[90000] EN=0: Output must remain zero | en=0 row=1101 -> buttonMux=0000

 TEST 2: Rising edge on row[0] -- 
[110000] Pipeline flush 1 | en=1 row=0000 -> buttonMux=0000
[120000] Pipeline flush 2 | en=1 row=0000 -> buttonMux=1101
[130000] Start: no key | en=1 row=0000 -> buttonMux=0000
[140000] Row0 rises - expect buttonMux = 0001 | en=1 row=0001 -> buttonMux=0000
[150000] Hold → expect buttonMux = 0000 | en=1 row=0001 -> buttonMux=0000

 TEST 3: Rising edge on row[3] -- 
[160000] Reset rows | en=1 row=0000 -> buttonMux=0001
[170000] Pipeline flush 3 | en=1 row=0000 -> buttonMux=0000
[180000] Pipeline flush 4 | en=1 row=0000 -> buttonMux=0000
[190000] Row3 rises - expect buttonMux = 1000 | en=1 row=1000 -> buttonMux=0000
[200000] Hold → expect buttonMux = 0000 | en=1 row=1000 -> buttonMux=0000

 TEST 4: Bounce simulation -- 
[210000] Idle | en=1 row=0000 -> buttonMux=1000
[220000] Bounce high | en=1 row=0100 -> buttonMux=0000
[230000] Bounce low | en=1 row=0000 -> buttonMux=0000
[240000] Final high - expect buttonMux = 0100 | en=1 row=0100 -> buttonMux=0100

 TEST 5: Disable during row change -- 
[250000] EN=0: Output forced to 0 | en=0 row=1111 -> buttonMux=0000
[260000] Still EN=0: Output forced to 0 | en=0 row=0001 -> buttonMux=0000

Simulation complete.
testbench/debouncing_tb.sv:101: $finish called at 260000 (1ps)
